MAP: 0.6064113756613757
NDCG: 0.6856361618719984
Precision averaged over 30 queries for each recall lvl: [1.0, 1.0, 0.9552380952380953, 0.9469047619047619, 0.8382539682539683, 0.6563095238095239, 0.646494708994709, 0.44212962962962965, 0.34555555555555556, 0.22, 0.06666666666666667]
List of average precision for each query: [1.0, 1.0, 0.36666666666666664, 0.6565476190476189, 0.788888888888889, 0.8788888888888889, 0.5607142857142857, 0.89, 0.8, 0.788888888888889, 0.549047619047619, 0.6, 0.8521031746031745, 0.4, 0.15857142857142856, 0.7, 0.48, 0.866388888888889, 0.4, 0.4405555555555555, 0.6, 0.38630952380952377, 0.9, 0.3, 0.4, 0.7621031746031746, 0.36666666666666664, 0.6, 0.4, 0.3]
list of ndcg for each query: [0.7842897701897656, 0.9533755194638893, 0.5279134719525346, 0.6524751662143525, 0.7958229213692067, 0.8756007257749546, 0.6384353284935083, 0.8056529654728473, 0.8327473360986867, 0.7184496133434924, 0.6102884255080335, 0.8329177509089729, 0.9020022606497362, 0.4625638925488031, 0.4479929062997194, 0.7496682694748465, 0.5788260709201399, 0.9106771242600812, 0.4592660512617044, 0.5988836242513795, 0.9007604381599593, 0.5751060925191036, 0.8104179280437744, 0.3860276388058759, 0.6271330010411823, 0.7504838142962466, 0.6227194018695771, 0.6973351642881541, 0.3995753137567115, 0.661676868922715]
