MAP: 0.5814034391534392
NDCG: 0.64360910548597
Precision averaged over 30 queries for each recall lvl: [1.0, 1.0, 0.9074603174603175, 0.8910714285714287, 0.7885714285714286, 0.6410714285714286, 0.6001984126984127, 0.41175925925925927, 0.34555555555555556, 0.19, 0.06666666666666667]
List of average precision for each query: [1.0, 1.0, 0.4, 0.6565476190476189, 0.78, 0.8788888888888889, 0.5607142857142857, 0.89, 0.8, 0.7763888888888889, 0.4958333333333333, 0.6, 0.7763888888888889, 0.5857142857142856, 0.16190476190476188, 0.788888888888889, 0.48, 0.13999999999999999, 0.4, 0.35, 0.6, 0.1733333333333333, 0.9, 0.38, 0.5, 0.89, 0.1775, 0.6, 0.4, 0.3]
list of ndcg for each query: [0.7842897701897656, 0.8409460368305416, 0.5763427361910385, 0.6524751662143525, 0.6749926187468285, 0.8756007257749546, 0.6384353284935083, 0.8056529654728473, 0.7487625643758977, 0.8268424509162264, 0.5109687239919228, 0.8329177509089729, 0.8864409052822178, 0.5730165546624766, 0.452920058546156, 0.7629792709642732, 0.556480516980555, 0.4393402924495235, 0.4592660512617044, 0.5038725870954274, 0.9007604381599593, 0.35356713663799966, 0.8104179280437744, 0.35356713663799966, 0.6231892305113278, 0.844295029147493, 0.19835726433167863, 0.6973351642881541, 0.4625638925488031, 0.661676868922715]
