MAP: 0.5359100529100529
NDCG: 0.6036059956598907
Precision averaged over 30 queries for each recall lvl: [0.9226190476190476, 0.9226190476190476, 0.9026190476190477, 0.8667460317460317, 0.7524338624338625, 0.6253968253968254, 0.5858465608465608, 0.43240740740740746, 0.3118518518518519, 0.03333333333333333, 0.0]
List of average precision for each query: [0.5908730158730158, 0.7532142857142856, 0.4, 0.524047619047619, 0.4463095238095239, 0.8, 0.6732142857142857, 0.7621031746031746, 0.7621031746031746, 0.6777777777777778, 0.549047619047619, 0.6, 0.8, 0.4, 0.01, 0.8, 0.6, 0.8, 0.16, 0.32976190476190476, 0.7, 0.788888888888889, 0.9, 0.3, 0.35, 0.745436507936508, 0.2733333333333333, 0.2, 0.27166666666666667, 0.10952380952380951]
list of ndcg for each query: [0.7777637459246887, 0.719501547983343, 0.5763427361910385, 0.3564106081922201, 0.5204299109500837, 0.9396952507623528, 0.7891855693296628, 0.86254629457721, 0.8571308289210063, 0.445354969505864, 0.6102884255080335, 0.6913681145527952, 0.9383939704462901, 0.37857912082601425, 0.10275253442482472, 0.7686314100818857, 0.4701151984098188, 0.9012639415462896, 0.15361582199010898, 0.39105730236311914, 0.8185983743688762, 0.7914547874367353, 0.7574884226371842, 0.491008603459362, 0.47001241052866477, 0.740858877431516, 0.6951065216899172, 0.4073600285270542, 0.3628040387065963, 0.32306050252416413]
