MAP: 0.515691798941799
NDCG: 0.5804483713274062
Precision averaged over 30 queries for each recall lvl: [0.9079365079365079, 0.9079365079365079, 0.8642857142857143, 0.842857142857143, 0.7073015873015874, 0.6391534391534391, 0.5991402116402116, 0.3858333333333333, 0.2518518518518518, 0.03333333333333333, 0.0]
List of average precision for each query: [0.5908730158730158, 0.7621031746031746, 0.38, 0.524047619047619, 0.4958333333333333, 0.8, 0.6732142857142857, 0.7621031746031746, 0.645, 0.6777777777777778, 0.549047619047619, 0.6, 0.5380952380952382, 0.6, 0.014285714285714285, 0.788888888888889, 0.6, 0.8, 0.16, 0.256031746031746, 0.6468253968253967, 0.8, 0.9, 0.19666666666666666, 0.17666666666666667, 0.7254365079365078, 0.22666666666666666, 0.2, 0.27166666666666667, 0.10952380952380951]
list of ndcg for each query: [0.7777637459246887, 0.7203227400244158, 0.572398965661184, 0.3564106081922201, 0.5587240700338101, 0.9396952507623528, 0.8313379491020545, 0.86254629457721, 0.740229132644479, 0.4430843872595907, 0.6102884255080335, 0.6913681145527952, 0.871905530763268, 0.5475925956436897, 0.1215865255386124, 0.7676148839200567, 0.4701151984098188, 0.897777118325595, 0.15361582199010898, 0.2706228311116779, 0.7628618234058885, 0.7849919900567994, 0.7574884226371842, 0.3064996399719154, 0.2879518565555956, 0.6237538522607187, 0.5243074228288156, 0.4073600285270542, 0.43017541110838975, 0.32306050252416413]
