MAP: 0.5224047619047619
NDCG: 0.5905913133344093
Precision averaged over 30 queries for each recall lvl: [0.9035714285714286, 0.9035714285714286, 0.8774867724867724, 0.8597089947089948, 0.7290476190476192, 0.6139550264550265, 0.581084656084656, 0.4287037037037037, 0.3081481481481481, 0.03333333333333333, 0.0]
List of average precision for each query: [0.5908730158730158, 0.7532142857142856, 0.4, 0.549047619047619, 0.4463095238095239, 0.8, 0.6732142857142857, 0.7621031746031746, 0.745436507936508, 0.5184920634920636, 0.549047619047619, 0.6, 0.8, 0.4, 0.01, 0.788888888888889, 0.6, 0.8, 0.16, 0.3208333333333333, 0.7, 0.7763888888888889, 0.9, 0.3, 0.35, 0.6671031746031746, 0.11333333333333333, 0.2, 0.27166666666666667, 0.1261904761904762]
list of ndcg for each query: [0.7777637459246887, 0.7076702363937795, 0.5763427361910385, 0.383742377826315, 0.5217311912661466, 0.9383939704462901, 0.7891855693296628, 0.86254629457721, 0.7706529493509625, 0.3942948652144866, 0.6102884255080335, 0.6913681145527952, 0.9234969344865668, 0.37857912082601425, 0.10275253442482472, 0.7676148839200567, 0.4701151984098188, 0.9012639415462896, 0.15361582199010898, 0.38975602204705634, 0.8185983743688762, 0.7901535071206723, 0.7574884226371842, 0.47001241052866477, 0.47001241052866477, 0.6434006841825282, 0.3747083502994545, 0.4073600285270542, 0.4467888104293851, 0.4280414671776502]
