MAP: 0.6111878306878308
NDCG: 0.6676853206349745
Precision averaged over 30 queries for each recall lvl: [0.9833333333333333, 0.9833333333333333, 0.9468253968253968, 0.9207142857142858, 0.8790476190476191, 0.7253571428571429, 0.6603439153439155, 0.43712962962962965, 0.31925925925925924, 0.2233333333333333, 0.06666666666666667]
List of average precision for each query: [1.0, 1.0, 0.4, 0.6565476190476189, 0.6875, 0.866388888888889, 0.5607142857142857, 0.8788888888888889, 0.8, 0.6732142857142857, 0.49071428571428566, 0.6, 0.7621031746031746, 0.6, 0.16333333333333333, 0.788888888888889, 0.49071428571428566, 0.89, 0.4, 0.42269841269841263, 0.6, 0.1775, 0.9, 0.38, 0.5, 0.9, 0.4714285714285714, 0.6, 0.4, 0.275]
list of ndcg for each query: [0.7842897701897656, 0.8505628225841134, 0.5763427361910385, 0.5522439975229527, 0.6663155900929357, 0.8718358693356735, 0.6338229791529261, 0.8046364393110182, 0.7487625643758977, 0.7642817300661471, 0.5743951966176131, 0.8329177509089729, 0.8677514158414613, 0.5747599662728239, 0.45322314113076123, 0.7676148839200567, 0.5577817972966178, 0.9112515191276257, 0.4592660512617044, 0.4847043188329533, 0.8957742224654494, 0.4477645017573344, 0.8104179280437744, 0.35356713663799966, 0.6292883874823018, 0.8823588110878738, 0.6086912880497859, 0.6913681145527952, 0.4625638925488031, 0.5120047963900591]
