MAP: 0.6036666666666668
NDCG: 0.6690965524269236
Precision averaged over 30 queries for each recall lvl: [0.9888888888888888, 0.9888888888888888, 0.9512698412698413, 0.942936507936508, 0.8390476190476192, 0.6571031746031746, 0.6500661375661376, 0.4387962962962963, 0.34925925925925927, 0.22, 0.06666666666666667]
List of average precision for each query: [1.0, 1.0, 0.36666666666666664, 0.6565476190476189, 0.7, 0.866388888888889, 0.5607142857142857, 0.89, 0.8, 0.8, 0.49071428571428566, 0.6, 0.8521031746031745, 0.4, 0.15857142857142856, 0.788888888888889, 0.49071428571428566, 0.866388888888889, 0.4, 0.4405555555555555, 0.6, 0.35297619047619044, 0.9, 0.3, 0.4, 0.7621031746031746, 0.36666666666666664, 0.6, 0.4, 0.3]
list of ndcg for each query: [0.7842897701897656, 0.8715590155148106, 0.46492489316044294, 0.5522439975229527, 0.6881432346979452, 0.8742994454588918, 0.6384353284935083, 0.8056529654728473, 0.8327473360986867, 0.7212269977135218, 0.5669158730758482, 0.8329177509089729, 0.8927310347381691, 0.4625638925488031, 0.4479929062997194, 0.7676148839200567, 0.5577817972966178, 0.9106771242600812, 0.4592660512617044, 0.5091505520253284, 0.9007604381599593, 0.6197972003982735, 0.8104179280437744, 0.3860276388058759, 0.6271330010411823, 0.709792708750915, 0.6227194018695771, 0.6938612224000502, 0.3995753137567115, 0.661676868922715]
