MAP: 0.5136177248677248
NDCG: 0.5861852293442494
Precision averaged over 30 queries for each recall lvl: [0.8936507936507937, 0.8936507936507937, 0.8587301587301588, 0.8442857142857143, 0.7073015873015874, 0.6391534391534391, 0.597473544973545, 0.3858333333333333, 0.24888888888888888, 0.03333333333333333, 0.0]
List of average precision for each query: [0.5908730158730158, 0.7621031746031746, 0.38, 0.549047619047619, 0.4958333333333333, 0.8, 0.6732142857142857, 0.7621031746031746, 0.6366666666666667, 0.6777777777777778, 0.549047619047619, 0.6, 0.5380952380952382, 0.6, 0.014285714285714285, 0.78, 0.6, 0.8, 0.16, 0.256031746031746, 0.6468253968253967, 0.8, 0.9, 0.19666666666666666, 0.17666666666666667, 0.7254365079365078, 0.13999999999999999, 0.2, 0.27166666666666667, 0.1261904761904762]
list of ndcg for each query: [0.7777637459246887, 0.7203227400244158, 0.572398965661184, 0.383742377826315, 0.5587240700338101, 0.9383939704462901, 0.8313379491020545, 0.86254629457721, 0.73921260648265, 0.4430843872595907, 0.6102884255080335, 0.6913681145527952, 0.871905530763268, 0.5475925956436897, 0.1215865255386124, 0.7667936918789839, 0.4701151984098188, 0.897777118325595, 0.15361582199010898, 0.2706228311116779, 0.7628618234058885, 0.7849919900567994, 0.7574884226371842, 0.3064996399719154, 0.2879518565555956, 0.6867424310528103, 0.4534605839232639, 0.4073600285270542, 0.4809656759585336, 0.4280414671776502]
