MAP: 0.6113042328042328
NDCG: 0.6866106313319211
Precision averaged over 30 queries for each recall lvl: [1.0, 1.0, 0.9474603174603174, 0.9357936507936507, 0.8582539682539684, 0.7215873015873017, 0.6557142857142857, 0.42129629629629634, 0.34925925925925927, 0.19, 0.06666666666666667]
List of average precision for each query: [1.0, 1.0, 0.4, 0.6565476190476189, 0.788888888888889, 0.8788888888888889, 0.49071428571428566, 0.89, 0.8, 0.6732142857142857, 0.549047619047619, 0.6, 0.7763888888888889, 0.5857142857142856, 0.16333333333333333, 0.78, 0.48, 0.8, 0.4, 0.4405555555555555, 0.6, 0.1733333333333333, 0.9, 0.38, 0.5, 0.89, 0.4425, 0.6, 0.4, 0.3]
list of ndcg for each query: [0.7842897701897656, 0.9459270014840278, 0.5763427361910385, 0.6524751662143525, 0.7905926865381648, 0.8756007257749546, 0.617981620581157, 0.8056529654728473, 0.7487625643758977, 0.7642817300661471, 0.6102884255080335, 0.8329177509089729, 0.8864409052822178, 0.5730165546624766, 0.45322314113076123, 0.7667936918789839, 0.5788260709201399, 0.8941260967234883, 0.4592660512617044, 0.5988836242513795, 0.9007604381599593, 0.35356713663799966, 0.8104179280437744, 0.35356713663799966, 0.6082921945516045, 0.8815376190468011, 0.5811248239224703, 0.6973351642881541, 0.5343503503296441, 0.661676868922715]
