MAP: 0.6029140211640213
NDCG: 0.6782673551006088
Precision averaged over 30 queries for each recall lvl: [1.0, 1.0, 0.9538095238095238, 0.9404761904761905, 0.8515873015873016, 0.6563095238095239, 0.6501984126984126, 0.44212962962962965, 0.3418518518518519, 0.18999999999999997, 0.06666666666666667]
List of average precision for each query: [1.0, 1.0, 0.36666666666666664, 0.6565476190476189, 0.7763888888888889, 0.788888888888889, 0.5607142857142857, 0.8788888888888889, 0.8, 0.788888888888889, 0.49071428571428566, 0.6, 0.8521031746031745, 0.4, 0.20666666666666664, 0.7, 0.48, 0.866388888888889, 0.4, 0.4326984126984127, 0.6, 0.38630952380952377, 0.9, 0.3, 0.4, 0.788888888888889, 0.36666666666666664, 0.6, 0.4, 0.3]
list of ndcg for each query: [0.7842897701897656, 0.9459270014840278, 0.5279134719525346, 0.6524751662143525, 0.7779390472940518, 0.8046354600351865, 0.6384353284935083, 0.8046364393110182, 0.8327473360986867, 0.7184496133434924, 0.5818437145974747, 0.8329177509089729, 0.9020022606497362, 0.4625638925488031, 0.4752757157813353, 0.7496682694748465, 0.5788260709201399, 0.9106771242600812, 0.4592660512617044, 0.5844098224480244, 0.9007604381599593, 0.5751060925191036, 0.8104179280437744, 0.3860276388058759, 0.6271330010411823, 0.7473504629969546, 0.6227194018695771, 0.6973351642881541, 0.3995753137567115, 0.556695904269229]
